#       Energy        sigma(1, nspin=1)   sigma(2, nspin=1)   sigma(3, nspin=1)   StrengthFunction(1)
#        [eV]               [A^2]               [A^2]               [A^2]               [1/eV]       
      0.00000000E+00     -0.00000000E+00     -0.00000000E+00     -0.00000000E+00     -0.00000000E+00
      0.10000000E-01     -0.21661925E-08     -0.20308971E-16      0.43455816E-16     -0.19735544E-08
      0.20000000E-01     -0.86534460E-08     -0.81138841E-16      0.17361848E-15     -0.78839004E-08
