CalculationMode = td
DisableAccel = yes


UnitsOutput = ev_angstrom

%Coordinates
'Na'  | -1.4646408*angstrom | 0 | 0 | yes
'Na'  |  1.4646408*angstrom | 0 | 0 | yes
%

ExcessCharge = 1

FromScratch = yes

Spacing = 0.32*angstrom
Radius = 6.0*angstrom

TDMaxSteps = 100

TDPropagator = aetrs

TDDeltaStrength = 0.01/angstrom

%TDPolarization
 1/sqrt(2) | -1/sqrt(2) | 0
 1/sqrt(2) |  1/sqrt(2) | 0
 1/sqrt(2) |  0         | 1/sqrt(2)
%

TDPolarizationDirection = 1
TDPolarizationEquivAxes = 3

SpinComponents = spinors
