# -*- coding: utf-8 mode: shell-script -*-

CalculationMode = gs

Dimensions = 1

BoxShape = sphere
Spacing = 0.6
Radius = 50.0

%Species
"Li1D" | species_user_defined | potential_formula | "-3/sqrt(1+(x)^2)" | valence | 3
%

%Coordinates
"Li1D" | 0
%

SpinComponents = spin_polarized

TheoryLevel = hartree_fock

MixingScheme = linear
Mixing = 0.5

EigenSolverTolerance = 1.0e-8
ConvRelDens = 1e-10

RestartWrite = no
